Np,k_D_avg,k_D_std
100,5.702,0.038
200,5.831,0.022
300,5.881,0.015
500,5.922,0.01
750,5.946,0.007
1000,5.958,0.005
1250,5.965,0.004
1500,5.97,0.004
2000,5.977,0.003
3000,5.984,0.002
5000,5.99,0.0012
10000,5.995,0.00066
20000,5.997,0.00034
