Np,k_D_avg,k_D_std
100,12.86,0.19
500,14.477,0.088
1000,14.812,0.061
2000,15.041,0.041
5000,15.224,0.025
10000,15.309,0.018
20000,15.368,0.014
30000,15.395,0.011
50000,15.4209,0.0087
100000,15.448,0.0058
